{
  "model": "StudentCourseClasses",
  "components": [
    {
      "type": "fieldset",
      "legend": "Course info",
      "components": [
        {
          "columns": [
            {
              "components": [
                {
                  "label": "Semester",
                  "labelPosition": "top",
                  "widget": "choicesjs",
                  "dataSrc": "url",
                  "data": {
                    "url": "Semesters",
                    "headers": []
                  },
                  "template": "{{ item.name }}",
                  "selectValues": "value",
                  "key": "semester",
                  "type": "select",
                  "input": true,
                  "searchEnabled": false,
                  "lazyLoad": false,
                  "validate": {
                    "required": true
                  }
                }
              ],
              "width": 3,
              "offset": 0,
              "push": 0,
              "pull": 0
            },
            {
              "components": [
                {
                  "label": "Type",
                  "labelPosition": "top",
                  "widget": "choicesjs",
                  "dataSrc": "url",
                  "data": {
                    "url": "CourseTypes?$orderby=name",
                    "headers": []
                  },
                  "template": "{{ item.name }}",
                  "selectValues": "value",
                  "key": "courseType",
                  "type": "select",
                  "input": true,
                  "searchEnabled": false,
                  "lazyLoad": false,
                  "validate": {
                    "required": true
                  }
                }
              ],
              "width": 3,
              "offset": 0,
              "push": 0,
              "pull": 0
            },
            {
              "components": [
                {
                  "label": "Units",
                  "labelPosition": "top",
                  "widget": {
                    "type": "input"
                  },
                  "validate": {
                    "required": true,
                    "min": 0
                  },
                  "key": "units",
                  "type": "number",
                  "input": true
                }
              ],
              "width": 3
            },
            {
              "components": [
                {
                  "label": "ECTS",
                  "labelPosition": "top",
                  "widget": {
                    "type": "input"
                  },
                  "validate": {
                    "required": true,
                    "min": 0
                  },
                  "key": "ects",
                  "type": "number",
                  "input": true
                }
              ],
              "width": 3
            },
            {
              "components": [
                {
                  "label": "Coefficient",
                  "labelPosition": "top",
                  "widget": {
                    "type": "input"
                  },
                  "validate": {
                    "required": true,
                    "min": 0
                  },
                  "key": "coefficient",
                  "type": "number",
                  "input": true
                }
              ],
              "width": 3
            },
            {
              "components": [
                {
                  "label": "Section",
                  "labelPosition": "top",
                  "widget": "choicesjs",
                  "dataSrc": "url",
                  "data": {
                    "url": "CourseClassSections/?$orderby=name&$filter=courseClass eq {{ data.courseClass }}  ",
                    "headers": []
                  },
                  "template": "{{ item.name }}",
                  "selectValues": "value",
                  "key": "section",
                  "valueProperty": "section",
                  "type": "select",
                  "input": true,
                  "searchEnabled": false,
                  "lazyLoad": false,
                  "validate": {
                    "required": false
                  }
                }
              ],
              "width": 3,
              "offset": 0,
              "push": 0,
              "pull": 0
            },
            {
              "components": [
                {
                  "label": "ID",
                  "labelPosition": "top",
                  "widget": {
                    "type": "input"
                  },
                  "validate": {
                    "required": false
                  },
                  "key": "id",
                  "type": "textfield",
                  "input": true,
                  "hidden": true,
                  "disabled": true
                }
              ],
              "width": 6
            }
          ],
          "customClass": "text-dark",
          "hideLabel": true,
          "type": "columns",
          "input": false
        }
      ]
    },
    {
      "type": "button",
      "label": "Submit",
      "key": "submit",
      "theme":"indigo",
      "hidden": true,
      "disableOnInvalid": true,
      "input": true,
      "tableView": false,
      "validate": {
        "unique": false,
        "multiple": false
      }
    }
  ]
}
