{
  "title": "CourseClasses",
  "model": "CourseClasses",
  "searchExpression":"indexof(title, '${text}') ge 0 or indexof(course/displayCode, '${text}') ge 0 or indexof(course/department/abbreviation, '${text}') ge 0 or indexof(course/department/name, '${text}') ge 0 or indexof(year/alternateName, '${text}') ge 0 ",
  "selectable": true,
  "multipleSelect": true,
  "columns": [
    {
      "name":"id",
      "property":"id",
      "formatter": "ActionLinkFormatter",
      "actions" : [
        {
          "title": "Classes.Preview",
          "href": "#/classes/${id}/"
        },
        {
          "title": "Labels.EditLink",
          "href": "#/classes/${id}/edit"
        }
      ]
    },
    {
      "name": "id",
      "property": "rulesID",
      "formatter": "ButtonFormatter",
      "formatString":"(modal:rules)",
      "className": "text-center",
      "formatOptions": {
        "buttonContent": "<i class=\"fas fa-blender text-indigo\"></i>",
        "buttonClass": "btn btn-default",
        "commands": [
          { "outlets":
          {
            "modal":["item", "${id}", "rules"]
          }
          }
        ],
        "navigationExtras": {
          "replaceUrl": false,
          "skipLocationChange": true
        }
      }
    },
    {
      "name":"course/displayCode",
      "property":"displayCode",
      "title":"Classes.DisplayCode"
    },
    {
      "name":"title",
      "property": "title",
      "title":"Classes.ClassTitle"
    },
    {
      "name":"year/alternateName",
      "property": "academicYear",
      "title":"Classes.AcademicYear"
    },
    {
      "name":"period/name",
      "property": "period",
      "title":"Classes.Period"
    },
    {
      "name":"numberOfStudents",
      "property": "numberOfStudents",
      "title":"Classes.NumberOfStudents"
    },

    {
      "name":"weekHours",
      "property": "weekHours",
      "title":"Classes.WeekHours",
      "hidden": true
    },
    {
      "name":"totalHours",
      "property": "totalHours",
      "title":"Classes.TotalHours",
      "hidden": true
    },
    {
      "name":"status/alternateName",
      "property": "status",
      "title":"Classes.ClassStatus",
      "formatters": [
        {
          "formatter": "TranslationFormatter",
          "formatString": "ClassStatuses.${value}"
        }
      ]
    },
    {
      "name":"year",
      "property": "year",
      "hidden": true
    },
    {
      "name":"period",
      "property": "academicPeriod",
      "hidden": true
    },
    {
      "name":"course",
      "title":"Classes.Course",
      "hidden": true
    }
  ],
  "defaults":{
    "filter": "(department eq ${currentDepartment} and period eq ${currentPeriod} and year eq ${currentYear})",
    "orderBy": "year desc,period desc,title asc"
  },
  "criteria": [
    {
      "name": "title",
      "filter": "(indexof(title, '${value}') ge 0)",
      "type": "text"
    },
    {
      "name": "maxNumberOfStudents",
      "filter": "${value >=1 ? '(maxNumberOfStudents gt 0)': '(maxNumberOfStudents eq null or maxNumberOfStudents le 0)'}",
      "type": "text",
      "title":  "Classes.MaxNumberOfStudents"
    },
    {
      "name": "displayCode",
      "filter": "(course/displayCode eq '${value}')",
      "type": "text"
    },
    {
      "name": "yearId",
      "filter": "(year/id eq '${value}')",
      "type": "text"
    },
    {
      "name": "period",
      "filter": "(period/alternateName eq '${value}')",
      "type": "text"
    },
    {
      "name": "currentYear",
      "filter": "(year eq '${currentYear}')",
      "type": "text"
    },
    {
      "name": "status",
      "filter": "(status/alternateName eq '${value}')",
      "type": "text"
    }
  ],
  "searches" : [
    {
      "name": "AdvancedSearch.PreDefinedLists.openClasses",
      "filter": {
        "courseClassStatus": "open"
      }
    },
    {
      "name": "AdvancedSearch.PreDefinedLists.currentClasses",
      "filter": {
        "currentYear" : true
      }
    }
  ]
}
