{
  "title": "SpecializationCourses",
  "model": "SpecializationCourses",
  "searchExpression": "(indexof(studyProgramCourse/course/name, '${text}') ge 0 or indexof(studyProgramCourse/course/displayCode, '${text}') ge 0 or indexof(studyProgramCourse/course/department/abbreviation, '${text}') ge 0 or indexof(studyProgramCourse/course/department/name, '${text}') ge 0 or indexof(semester/name, '${text}') ge 0 or indexof(studyProgramCourse/course/name, '${text}') ge 0 or indexof(studyProgramCourse/course/displayCode, '${text}') ge 0 or indexof(studyProgramCourse/course/department/abbreviation, '${text}') ge 0 or indexof(studyProgramCourse/course/department/name, '${text}') ge 0 or indexof(specialization/abbreviation, '${text}') ge 0 or indexof(specialization/name, '${text}') ge 0 or indexof(courseType/abbreviation, '${text}') ge 0 or indexof(courseType/name, '${text}') ge 0)",
  "columns": [
    {
      "name": "studyProgramCourse/course/id",
      "property": "courseID",
      "hidden": true
    },
    {
      "name": "studyProgramCourse/course",
      "property": "course",
      "hidden": true
    },
    {
      "name": "id",
      "property": "id",
      "formatter": "ActionLinkFormatter",
      "actions": [
        {
          "title": "StudentCourses.Preview",
          "href": "#/courses/${id}/"
        },
        {
          "title": "StudentCourses.Edit",
          "href": "#/courses/${id}/edit"
        }
      ]
    },
    {
      "name": "studyProgramCourse/course/displayCode",
      "property": "displayCode",
      "title": "StudentCourses.DisplayCode"
    },
    {
      "name": "studyProgramCourse/course/name",
      "property": "name",
      "title": "StudentCourses.name"
    },
    {
      "name": "studyProgramCourse/course/department/abbreviation",
      "property": "departmentName",
      "title": "StudentCourses.Department"
    },
    {
      "name": "semester/id",
      "property": "semester",
      "title": "StudentCourses.semester"
    },
    {
      "name": "specialization/abbreviation",
      "property": "specialty",
      "title": "StudentCourses.specialty"
    },
    {
      "name": "courseType/abbreviation",
      "property": "courseType",
      "title": "StudentCourses.courseType"
    },
    {
      "name": "specialization/id",
      "property": "specialization",
      "title": "StudentCourses.specialty",
      "hidden": true
    }
  ],
  "defaults": {
    "filter": "(studyProgramCourse/studyProgram eq ${program}) and (studyProgramCourse/course/isEnabled eq 1) and (specializationIndex eq -1 or specializationIndex eq ${specializationIndex}) and (studyProgramCourse/course/courseStructureType ne 8)"
  },
  "criteria": [
    {
      "name": "studyProgramCourse/course/name",
      "filter": "(indexof(studyProgramCourse/course/name, '${value}') ge 0)",
      "type": "text"
    },
    {
      "name": "studyProgramCourse/course/department",
      "filter": "(studyProgramCourse/course/department eq '${value}')",
      "type": "text"
    },
    {
      "name": "studyProgramCourse/course/displayCode",
      "filter": "(indexof(studyProgramCourse/course/displayCode, '${value}') ge 0)",
      "type": "text"
    },
    {
      "name": "semester/id",
      "filter": "(semester/id eq '${value}')",
      "type": "text"
    },
    {
      "name": "semester/name",
      "filter": "(indexof(semester/name, '${value}') ge 0)",
      "type": "text"
    },
    {
      "name": "specialization/abbreviation",
      "filter": "(indexof(specialization/abbreviation, '${value}') ge 0)",
      "type": "text"
    },
    {
      "name": "specialization/name",
      "filter": "(indexof(specialization/name, '${value}') ge 0)",
      "type": "text"
    },
    {
      "name": "courseType/abbreviation",
      "filter": "(indexof(courseType/abbreviation, '${value}') ge 0)",
      "type": "text"
    },
    {
      "name": "courseType/name",
      "filter": "(indexof(courseType/name, '${value}') ge 0)",
      "type": "text"
    }
  ],
  "paths": [
  ]
}
