{
  "title": "Departments",
  "model": "DepartmentSnapshots",
   "columns": [
    {
      "name": "id",
      "hidden": "true",
      "property":"id"
    },
    {
      "name": "department",
      "title": "Departments.ListTable.ID",
      "hidden": true
    },
    {
      "name": "description",
      "title": "Snapshots.Description"
    },
    {
      "name": "abbreviation",
      "title": "Departments.ListTable.ID"
    },
    {
      "name": "name",
      "title": "Departments.ListTable.Name"
    },
    {
      "name": "facultyName",
      "title": "Departments.ListTable.facultyName"
    },
    {
      "name": "instituteName",
      "title": "Snapshots.InstituteName"
    },
    {
      "name": "id",
      "property": "snapshotId",
      "formatter": "ButtonFormatter",
      "formatString": "#/departments/${department}/dashboard/history/(modal:${id}/edit)",
      "className": "text-center",
      "formatOptions": {
        "buttonContent": "<i class=\"far fa-edit text-indigo\"></i>",
        "buttonClass": "btn btn-default"
      }
    }
  ]
}
