{
  "title": "Theses",
  "searchExpression": "",
  "columns": [
    {
      "name": "student/id",
      "property": "id",
      "formatter": "ActionLinkFormatter",
      "actions": [
        {
          "title": "Theses.Preview",
          "href": "#/students/${id}/dashboard/overview"
        }
      ]
    },
    {
      "name": "student/id",
      "property": "studentId",
      "title": "Theses.StudentId",
      "hidden": true
    },
    {
      "name": "student/studentIdentifier",
      "property": "studentIdentifier",
      "title": "Theses.StudentIdentifier",
      "hidden": false
    },
    {
      "name": "student/person/familyName",
      "property": "familyName",
      "title": "Theses.familyName",
      "hidden": true
    },
    {
      "name": "student/person/givenName",
      "property": "givenName",
      "title": "Theses.FullΝame",
      "formatter": "TemplateFormatter",
      "formatString": "${familyName} ${givenName}"
    },
    {
      "name": "student/studentStatus/alternateName",
      "property": "studentStatus",
      "title": "Students.Status",
      "formatter": "TranslationFormatter",
      "formatString": "StudentStatuses.${value}"
    },
    {
      "name": "student/semester",
      "property": "semester",
      "title": "Students.semester",
      "hidden": false
    },
    {
      "name": "isPassed",
      "property": "isPassed",
      "hidden": true
    },
    {
      "name": "formattedGrade",
      "property": "formattedGrade",
      "title": "Students.Grade",
      "formatter": "NgClassFormatter",
      "formatOptions": {
        "ngClass": {
          "text-success": "${isPassed}===1  && ${formattedGrade != null}",
          "text-danger": "${isPassed}===0 && ${formattedGrade != null}"
        }
      }
    }
  ],
  "defaults":{  },
  "criteria": [ ],
  "paths" : [ ]
}
