{
  "title": "ExamDocumentUploadActions",
  "model": "ExamDocumentUploadActions",
  "searchExpression": "(indexof(object/course/name, '${text}') ge 0 or indexof(object/course/displayCode, '${text}') ge 0 or indexof(object/course/department/abbreviation, '${text}') ge 0 or indexof(object/course/department/name, '${text}') ge 0 or indexof(object/examPeriod/name, '${text}') ge 0 or indexof(owner/alternateName, '${text}') ge 0)",
  "columns": [
    {
      "name": "object/course/displayCode",
      "property": "displayCode",
      "title": "Grades.DisplayCode"
    },
    {
      "name": "object/course/name",
      "property": "title",
      "title": "Grades.CourseName"
    },
    {
      "name": "object/year/alternateName",
      "property": "year",
      "title": "Grades.Year"
    },
    {
      "name": "object/examPeriod/name",
      "property": "examPeriod",
      "title": "Grades.Period"
    },
    {
      "name": "owner/alternateName",
      "property": "owner",
      "title": "Grades.Owner"
    },
    {
      "name": "dateCreated",
      "property": "dateCreated",
      "title": "Grades.DateCreated",
      "formatter": "DateTimeFormatter",
      "formatString": "short"
    },
    {
      "name": "actionStatus/alternateName",
      "property": "actionStatus",
      "title": "Grades.Status",
      "formatters": [
        {
          "formatter": "TranslationFormatter",
          "formatString": "ActionStatusTypes.${value}"
        },
        {
          "formatter": "NgClassFormatter",
          "formatOptions": {
            "ngClass": {
              "text-danger": "'${actionStatus}'==='CancelledActionStatus' || '${actionStatus}'==='FailedActionStatus'",
              "text-theme": "'${actionStatus}'==='ActiveActionStatus' || '${actionStatus}'==='PotentialActionStatus'",
              "text-success": "'${actionStatus}'==='CompletedActionStatus'"
            }
          }
        }
      ]
    },
    {
      "name": "object/id",
      "property": "examId",
      "hidden": true
    },
    {
      "name": "id",
      "formatter": "ButtonFormatter",
      "formatString": "#/exams/${examId}/dashboard/grading/${id}",
      "className": "text-center",
      "formatOptions": {
        "buttonContent": "<i class=\"far fa-eye text-indigo\"></i>",
        "buttonClass": "btn btn-default"
      }
    }
  ],
  "defaults": {
    "filter": "((object/course/department eq ${currentDepartment}) and (actionStatus/alternateName eq 'CompletedActionStatus' or actionStatus/alternateName eq 'FailedActionStatus' or actionStatus/alternateName eq 'ActiveActionStatus') and additionalResult ne null)",
    "orderBy": "dateCreated desc, object/examPeriod desc, object/course/name asc"
  },
  "criteria": [
    {
      "name": "courseName",
      "filter": "(indexof(object/course/name, '${value}') ge 0)",
      "type": "text"
    },
    {
      "name": "displayCode",
      "filter": "(indexof(object/course/displayCode, '${value}') ge 0)",
      "type": "text"
    },
    {
      "name": "actionStatus",
      "filter": "(actionStatus/name eq '${value}')",
      "type": "text"
    },
    {
      "name": "yearId",
      "filter": "(object/year/id eq '${value}')",
      "type": "text"
    },
    {
      "name": "examPeriod",
      "filter": "(object/examPeriod/name eq '${value}')",
      "type": "text"
    },
    {
      "name": "dateCreated",
      "filter": "(dateCreated eq '${value}')",
      "type": "text"
    },
    {
      "name": "pendingExamsDocuments",
      "filter": "(actionStatus/alternateName eq 'ActiveActionStatus')",
      "type": "text"
    },
    {
      "name": "currentYear",
      "filter": "(object/year eq '${currentYear}')",
      "type": "text"
    }
  ],
  "paths": [
    {
      "name": "Grades.GradeStatus.pending",
      "show": true,
      "alternateName": "list/pending",
      "filter": {}
    },
    {
      "name": "Grades.All",
      "alternateName": "list/index",
      "show": true,
      "filter": {}
    },
    {
      "name": "Grades.Approved",
      "show": true,
      "alternateName": "list/completed",
      "filter": {}
    }
  ]
}
