{
  "columns": [
    {
      "name": "reportVariable/name",
      "property": "reportVariableName",
      "title": "Settings.Attributes.name"
    },
    {
      "name": "reportVariable/typeString",
      "property": "reportVariableType",
      "title": "Settings.Attributes.typeString",
      "hidden": false
    },
    {
      "name": "dateCreated",
      "property": "dateCreated",
      "title": "Settings.Attributes.dateCreated",
      "formatter": "DateTimeFormatter",
      "formatString": "short",
      "hidden": false
    },
    {
      "name": "dateModified",
      "property": "dateModified",
      "title": "Settings.Attributes.dateModified",
      "formatter": "DateTimeFormatter",
      "formatString": "short",
      "hidden": false
    },
    {
      "name": "id",
      "formatter": "ButtonFormatter",
      "formatString":"(modal:edit)",
      "className": "text-center",
      "formatOptions": {
        "buttonContent": "<i class=\"far fa-edit text-indigo\"></i>",
        "buttonClass": "btn btn-default"
      }
    }
  ],
  "defaults": {
    "filter": "(department eq ${currentDepartment})",
    "orderBy": "dateModified desc,dateCreated desc"
  }
}
