{
	"model": "Instructors",
  "settings": {
    "i18n": {
      "el": {
        "Edit the name of the instructor": "Ορίστε το όνομα του διδάσκοντα",
        "Edit the family name of the instructor": "Ορίστε το επώνυμο του διδάσκοντα",
        "Edit the middle name of the instructor": "Ορίστε το μεσαίο όνομα του διδάσκοντα",
        "Edit the title (salutation) of the instructor.": "Ορίστε τον τίτλο του διδάσκοντα",
        "This should have a valid email format eg. user@example.com": "Πρέπει να έχει μια έγκυρη μορφή ηλεκτρονικού ταχυδρομείου π.χ. user@example.com",
        "Select the department the instructor belongs to": "Επιλέξτε το τμήμα στο οποίο ανήκει ο διδάσκοντας",
        "Edit the registration number of the instructor. It should contain up to 20 characters": "Ορίστε τον αριθμό μητρώου του διδάσκοντα. Πρέπει να περιέχει έως 20 χαρακτήρες",
        "Input the home phone number of the instructor. The number must contain the country code.": "Πληκτρολογείστε το σταθερό τηλέφωνο του διδάσκοντα. Πρέπει να περιέχει τον κωδικό της χώρας.",
        "Input the work phone number of the instructor. The number must contain the country code.": "Πληκτρολογείστε το τηλέφωνο εργασίας του διδάσκοντα. Πρέπει να περιέχει τον κωδικό της χώρας."
      }
    }
  },
	"components": [{
		"label": "Tabs",
		"type": "tabs",
		"key": "tabs1",
		"path": "tabs1",
		"input": false,

		"components": [{
			"label": "General Information",

			"components": [{

			"type": "fieldset",
			"legend": "User Information",
			"components": [
				{
					"columns": [
						{
							"components": [
								{
									"label": "Given Name",
									"labelPosition": "top",
									"widget": {
										"type": "input"
									},
									"validate": {
										"required": true
									},
									"key": "givenName",
									"type": "textfield",
									"input": true,
                  "description": "Edit the name of the instructor"
								}
							],
							"width": 4
						},
						{
							"components": [
								{
									"label": "Family Name",
									"labelPosition": "top",
									"widget": {
										"type": "input"
									},
									"validate": {
										"required": true
									},
									"key": "familyName",
									"type": "textfield",
									"input": true,
                  "description": "Edit the family name of the instructor"
								}
							],
							"width": 4
						},
						{
							"components": [
								{
									"label": "Middle Name",
									"labelPosition": "top",
									"widget": {
										"type": "input"
									},
									"validate": {
										"required": false
									},
									"key": "middleName",
									"type": "textfield",
									"input": true,
                  "description": "Edit the middle name of the instructor"
								}
							],
							"width": 4
						}
					],
					"customClass": "text-dark",
					"hideLabel": true,
					"type": "columns",
					"input": false
				},
				{
					"columns": [
						{
							"components": [
								{
									"label": "Title",
									"labelPosition": "top",
									"widget": {
										"type": "input"
									},
									"validate": {
										"required": false
									},
									"key": "title",
									"type": "textfield",
									"input": true,
                  "description": "Edit the title (salutation) of the instructor."
								}
							],
							"width": 4
						},
						{
							"components": [
								{
									"label": "Email",
									"labelPosition": "top",
									"widget": {
										"type": "input"
									},
									"validate": {
										"required": true
									},
									"key": "email",
									"type": "email",
									"input": true,
                  "description": "This should have a valid email format eg. user@example.com"
								}
							],
							"width": 4
						},
						{
							"components": [
								{
									"label": "Gender",
									"labelPosition": "top",
									"placeholder": "Choose Gender",
									"widget": "choicesjs",
									"searchEnabled": false,
									"template": "<span class='d-block pr-5 text-truncate'>{{ item.name }}</span>",
									"type": "select",
									"input": true,
									"dataSrc": "url",
									"data": {
										"url": "Genders/?$select=id,name,alternateName",
										"headers": []
									},
									"key": "gender.id",
									"valueProperty": "id",
									"lazyLoad": false,
									"defaultValue": "1",
									"selectValues": "value",
									"validate": {
										"required": true
									}
								}
							],
							"width": 4
						}
					],
					"customClass": "text-dark",
					"hideLabel": true,
					"type": "columns",
					"input": false
				}
			]
		},
		{
			"legend": "Rating Information",
			"type": "fieldset",
			"components": [
				{
					"columns": [
						{
							"components": [
								{
									"label": "Status",
									"labelPosition": "top",
									"placeholder": "Choose Status",
									"widget": "choicesjs",
									"searchEnabled": false,
									"template": "<span class='d-block pr-5 text-truncate'>{{ item.name }}</span>",
									"type": "select",
									"input": true,
									"dataSrc": "url",
									"data": {
										"url": "InstructorStatuses/?$select=id,name,alternateName",
										"headers": []
									},
									"key": "status.id",
									"valueProperty": "id",
									"lazyLoad": false,
									"selectValues": "value",
									"validate": {
										"required": true
									}
								}
							],
							"width": 3
						},
						{
							"components": [
								{
									"label": "Department Name",
									"labelPosition": "top",
									"disabled": true,
									"widget": "choicesjs",
									"validate": {
										"required": false
									},
									"dataSrc": "url",
									"data": {
											"url": "LocalDepartments/?$select=id,name",
											"headers": []
									},
									"searchFields": ["id", "name"],
									"template": "<span class='d-block pr-5 text-truncate'>{{ item.name }}</span>",
									"selectValues": "value",
									"valueProperty": "id",
									"lazyLoad": false,
									"key": "department.id",
									"type": "select",
									"input": true,
                  "description": "Select the department the instructor belongs to"
								}
							],
							"width": 6
						},
						{
							"components": [
								{
									"label": "Expertise",
									"labelPosition": "top",
									"widget": {
										"type": "input"
									},
									"validate": {
										"required": false
									},
									"key": "expertise",
									"type": "textfield",
									"input": true
								}
							],
							"width": 3
						}
					],
					"customClass": "text-dark",
					"hideLabel": true,
					"type": "columns",
					"input": false
				},
				{
					"columns": [
						{
							"components": [
								{
									"label": "Registration Number",
									"labelPosition": "top",
									"widget": {
										"type": "input"
									},
									"validate": {
										"required": false,
										"integer": true
									},
									"key": "personCode",
									"type": "textfield",
									"input": true,
									"disabled": true,
                  "description": "Edit the registration number of the instructor. It should contain up to 20 characters"
								}
							],
							"width": 3
						},
						{
							"components": [
								{
									"label": "Specialty",
									"labelPosition": "top",
									"widget": {
										"type": "input"
									},
									"validate": {
										"required": false
									},
									"key": "specialty",
									"type": "textfield",
									"input": true
								}
							],
							"width": 3
						},
						{
							"components": [
								{
									"label": "Category",
									"labelPosition": "top",
									"widget": "choicesjs",
									"validate": {
										"required": false
									},
									"key": "category",
									"searchEnabled": false,
									"type": "textfield",
									"input": true
								}
							],
							"width": 3
						},
						{
							"components": [
								{
									"label": "Create new category",
									"labelPosition": "top",
									"widget": "choicesjs",
									"validate": {
										"required": false
									},
									"key": "category",
									"type": "textfield",
									"input": true,
									"conditional": {
										"json": {
											"===": [
											{
												"var": "data.categoryOption"
											},
												1
											]
										}
									}
								},
								{
									"label": "Choose category from list",
									"labelPosition": "top",
									"dataSrc": "url",
									"data": {
											"url": "Instructors?$select=category&$groupby=category",
											"headers": []
									},
									"template": "<span class='d-block pr-5 text-truncate'>{{ item.category }}</span>",
									"selectValues": "value",
									"valueProperty": "category",
									"widget": "choicesjs",
									"validate": {
										"required": false
									},
									"lazyLoad": false,
									"key": "category",
									"type": "select",
									"input": true,
									"searchFields":[ "value.category" ],
									"conditional": {
										"json": {
											"===": [
											{
												"var": "data.categoryOption"
											},
												2
											]
										}
									}
								}
							],
						"width": 3
						}
					],
					"customClass": "text-dark",
					"hideLabel": true,
					"type": "columns",
					"input": false
				}
			]
		},
		{
			"type": "fieldset",
			"legend": "Contact Details",
			"components": [
				{
					"columns": [
						{
							"components": [
								{
									"label": "Home Address",
									"labelPosition": "top",
									"widget": {
										"type": "input"
									},
									"validate": {
										"required": false
									},
									"key": "homeAddress",
									"type": "textarea",
									"rows": 2,
									"input": true
								}
							],
							"width": 5
						},
						{
							"components": [
								{
									"label": "Postal Code",
									"labelPosition": "top",
									"inputMask": "99999",
									"widget": {
										"type": "input"
									},
									"validate": {
										"required": false
									},
									"key": "homePostalCode",
									"type": "phoneNumber",
									"input": true
								}
							],
							"width": 1
						},
						{
							"components": [
								{
									"label": "City",
									"labelPosition": "top",
									"widget": {
										"type": "input"
									},
									"validate": {
										"required": false
									},
									"key": "homeCity",
									"type": "textfield",
									"input": true
								}
							],
							"width": 3
						},
						{
							"components": [
								{
									"label": "Country",
									"labelPosition": "top",
									"disabled": false,
									"widget": "choicesjs",
									"validate": {
										"required": false
									},
									"dataSrc": "url",
									"data": {
											"url": "Countries/?$select=id,name&$top=-1",
											"headers": []
									},
									"searchFields": ["id", "name"],
									"template": "<span class='d-block pr-5 text-truncate'>{{ item.name }}</span>",
									"selectValues": "value",
									"valueProperty": "id",
									"lazyLoad": false,
									"key": "country",
									"type": "select",
									"input": true
								}
							],
							"width": 3
						}
					],
					"customClass": "text-dark",
					"hideLabel": true,
					"type": "columns",
					"input": false
				},
				{
					"columns": [
						{
							"components": [
									{
											"label": "Home Phone Number",
											"labelPosition": "top",
											"spellcheck": true,
											"inputMask": "+999999999999",
											"widget": {
													"type": "input"
											},
											"validate": {
													"required": false
											},
											"key": "homePhone",
											"type": "phoneNumber",
											"input": true,
                      "description": "Input the home phone number of the instructor. The number must contain the country code."
									}
							],
							"width": 3
						}
					],
					"customClass": "text-dark",
					"hideLabel": true,
					"type": "columns",
					"input": false
				},
				{
					"columns": [
						{
							"components": [
								{
									"label": "Work Address",
									"labelPosition": "top",
									"widget": {
										"type": "input"
									},
									"validate": {
										"required": false
									},
									"key": "workAddress",
									"type": "textarea",
									"rows": 2,
									"input": true
								}
							],
							"width": 5
						},
						{
							"components": [
								{
									"label": "Postal Code",
									"labelPosition": "top",
									"inputMask":"99999",
									"widget": {
										"type": "input"
									},
									"validate": {
										"required": false
									},
									"key": "workPostalCode",
									"type": "phoneNumber",
									"input": true
								}
							],
							"width": 1
						},
						{
							"components": [
								{
									"label": "City",
									"labelPosition": "top",
									"widget": {
										"type": "input"
									},
									"validate": {
										"required": false
									},
									"key": "workCity",
									"type": "textfield",
									"input": true
								}
							],
							"width": 3
						},
						{
							"components": [
								{
									"label": "Work Country",
									"labelPosition": "top",
									"disabled": false,
									"widget": "choicesjs",
									"validate": {
										"required": false
									},
									"dataSrc": "url",
									"data": {
											"url": "Countries/?$select=id,name&$top=-1",
											"headers": []
									},
									"searchFields": ["id", "name"],
									"template": "<span class='d-block pr-5 text-truncate'>{{ item.name }}</span>",
									"selectValues": "value",
									"valueProperty": "id",
									"lazyLoad": false,
									"key": "workCountry.id",
									"type": "select",
									"input": true
								}
							],
							"width": 3
						}
					],
					"customClass": "text-dark",
					"hideLabel": true,
					"type": "columns",
					"input": false
				},
				{
					"columns": [
						{
							"components": [
									{
											"label": "Work Phone Number",
											"labelPosition": "top",
											"spellcheck": true,
											"inputMask": "+999999999999",
											"widget": {
													"type": "input"
											},
											"validate": {
													"required": false
											},
											"key": "workPhone",
											"type": "phoneNumber",
											"input": true,
                      "description": "Input the work phone number of the instructor. The number must contain the country code."
									}
							],
							"width": 3
						}
					],
					"customClass": "text-dark",
					"hideLabel": true,
					"type": "columns",
					"input": false

					}]
				}
			  ]
			},
			{
			  "legend": "Other languages",
			  "key": "fieldSet",
			  "type": "fieldset",
			  "input": false,
			  "label": "Other languages",

			  "components": [{
				"label": "",
				"hideLabel": true,
				"key": "locales",
				"type": "datagrid",
				"disableAddingRemovingRows": true,
				"input": true,
				"customClass": "fix-panel-for-locales",
				"components": [{
				  "collapsible": false,
				  "hideLabel": true,
				  "key": "panel",
				  "type": "panel",
				  "title": "",
				  "hideTitle": true,
				  "input": false,
				  "tableView": false,
				  "components": [{
					  "label": "Language",
					  "tableView": true,
					  "key": "inLanguage",
					  "disabled": "true",
					  "type": "textfield",
					  "input": true
					},
					{
						"label": "Family Name",
						"tableView": true,
						"key": "familyName",
						"type": "textfield",
						"input": true
					},
					{
						"label": "Given Name",
						"tableView": true,
						"key": "givenName",
						"type": "textfield",
						"input": true
					},
					{
					  "label": "Category",
					  "tableView": true,
					  "key": "category",
					  "type": "textfield",
					  "input": true
					},
					{
					  "label": "Specialty",
					  "tableView": true,
					  "key": "specialty",
					  "type": "textfield",
					  "input": true
					}
				  ]
				}]
			  }]

				}
			]
		},
		{
			"type": "button",
      "theme": "btn btn-indigo",
			"label": "Submit",
			"key": "submit",
			"disableOnInvalid": true,
			"input": true
		}

	]
}
