{
  "model": "RequestRemoveActions",
  "title": "Student Removal",
  "settings": {
    "i18n": {
      "el": {
        "Student Removal": "Διαγραφή Φοιτητή",
        "Use this field if you want to inform office of the registrar for something more about your request":"Χρησιμοποιήστε το πεδίο αυτό για να δηλώσετε κάτι επιπλέον σχετικά με την αίτηση σας",
        "If you are requesting your removal because of you are going to enroll to another department, please write the name of this department":  "Αν αιτείστε την διαγραφή σας λόγω μεταγραφής ορίστε το τμήμα στο οποίο πρόκειται να μεταγραφείτε",
        "Removal Title": "Τίτλος Αίτησης",
        "Notes": "Σχόλια"
      }
    }
  },
  "components": [
    {
      "type": "fieldset",
      "components": [
        {
          "columns": [
            {
              "components": [
                {
                  "label": "Removal Title",
                  "customConditional": "show = !!data.name;",
                  "labelPosition": "top",
                  "widget": {
                    "type": "input"
                  },
                  "validate": {
                    "required": false
                  },
                  "key": "name",
                  "type": "textfield",
                  "input": true,
                  "disabled": true
                }
              ],
              "width": 12
            },
            {
              "components": [
                {
                  "label": "Removal Year",
                  "customConditional": "show = !!data.removalYear;",
                  "labelPosition": "top",
                  "key": "removalYear.alternateName",
                  "type": "select",
                  "searchEnabled": true,
                  "dataSrc": "url",
                  "data": {
                    "url": "AcademicYears?$top={{limit}}&$skip={{skip}}&$orderby=id desc",
                    "headers": []
                  },
                  "limit": 20,
                  "template": "{{ item.alternateName }}",
                  "input": true,
                  "lazyLoad": true,
                  "selectValues": "value",
                  "disabled": true,
                  "widget": "choicesjs"

                }
              ],
              "width": 6
            },
            {
              "components": [
                {
                  "label": "Removal Period",
                  "customConditional": "show = !!data.removalPeriod;",
                  "labelPosition": "top",
                  "widget": "choicesjs",
                  "dataSrc": "url",
                  "data": {
                    "url": "AcademicPeriods",
                    "headers": []
                  },
                  "template": "{{ item.name }}",
                  "selectValues": "value",
                  "key": "removalPeriod.name",
                  "type": "select",
                  "input": true,
                  "disabled": true,
                  "searchEnabled": false

                }
              ],
              "width": 6
            },
            {
              "components": [
                {
                  "customConditional": "show = !!data.removalDepartment;",
                  "label": "Removal Department",
                  "key": "removalDepartment",
                  "labelPosition": "top",
                  "validate": {
                    "required": false
                  },
                  "input": true,
                  "type": "textfield",
                  "clearOnRefresh": true,
                  "disabled": true
                }
              ],
              "width": 12,
              "offset": 0,
              "push": 0,
              "pull": 0
            },
            {
              "components": [
                {
                  "label": "Notes",
                  "labelPosition": "top",
                  "customConditional": "show = !!data.description;",
                  "widget": {
                    "type": "input"
                  },
                  "validate": {
                    "required": false
                  },
                  "key": "description",
                  "type": "textarea",
                  "input": true,
                  "disabled": true
                }
              ],
              "width": 12
            }
          ],
          "customClass": "text-dark",
          "hideLabel": true,
          "type": "columns",
          "input": false
        }
      ]
    }
  ],
  "width": 3
}
